C:\java\IdeaProjects\spring-mvc-basics-master\src\main\java\com\springapp\mvc\models\Albums.java
C:\java\IdeaProjects\spring-mvc-basics-master\src\main\java\com\springapp\mvc\service\AlbumsService.java
C:\java\IdeaProjects\spring-mvc-basics-master\src\main\java\com\springapp\mvc\models\Contacts.java
C:\java\IdeaProjects\spring-mvc-basics-master\src\main\java\com\springapp\mvc\models\Songs.java
C:\java\IdeaProjects\spring-mvc-basics-master\src\main\java\com\springapp\mvc\service\SongsService.java
C:\java\IdeaProjects\spring-mvc-basics-master\src\main\java\com\springapp\mvc\service\ContactsService.java
C:\java\IdeaProjects\spring-mvc-basics-master\src\main\java\com\springapp\mvc\models\Singers.java
C:\java\IdeaProjects\spring-mvc-basics-master\src\main\java\com\springapp\mvc\service\SingersService.java
C:\java\IdeaProjects\spring-mvc-basics-master\src\main\java\com\springapp\mvc\controllers\MainPage.java
